Modeling
…
  tree_grid<-grid_regular(cost_complexity(),
                          tree_depth(),
                          levels=c(5,5))

  tree_fits<-tree_wkf|>
    tune_grid(resamples=cv_fold_data,metrics=metric_set(mn_log_loss),
              grid=tree_grid)

#Listing out the the results 
  tree_fits|>
    collect_metrics()|>
    filter(.metric=="mn_log_loss")|>
    arrange(mean)

# A tibble: 25 × 8
   cost_complexity tree_depth .metric     .estimator  mean     n std_err .config
             <dbl>      <int> <chr>       <chr>      <dbl> <int>   <dbl> <chr>  
 1    0.0000000001          1 mn_log_loss binary     0.404     5 9.73e-6 Prepro…
 2    0.0000000178          1 mn_log_loss binary     0.404     5 9.73e-6 Prepro…
 3    0.00000316            1 mn_log_loss binary     0.404     5 9.73e-6 Prepro…
 4    0.000562              1 mn_log_loss binary     0.404     5 9.73e-6 Prepro…
 5    0.1                   1 mn_log_loss binary     0.404     5 9.73e-6 Prepro…
 6    0.0000000001          4 mn_log_loss binary     0.404     5 9.73e-6 Prepro…
 7    0.0000000178          4 mn_log_loss binary     0.404     5 9.73e-6 Prepro…
 8    0.00000316            4 mn_log_loss binary     0.404     5 9.73e-6 Prepro…
 9    0.000562              4 mn_log_loss binary     0.404     5 9.73e-6 Prepro…
10    0.1                   4 mn_log_loss binary     0.404     5 9.73e-6 Prepro…
# ℹ 15 more rows
…
